{
	"info": {
		"_postman_id": "034b831a-34fa-4b7f-91c5-26d228e3bb1e",
		"name": "Apis Demo",
		"schema": "https://schema.getpostman.com/json/collection/v2.1.0/collection.json"
	},
	"item": [
		{
			"name": "Get Employee Data",
			"event": [
				{
					"listen": "test",
					"script": {
						"exec": [
							"tests[\"validating status code\"]=responseCode.code==200;\r",
							"tests[\"validating response body\"]= responseBody.has(\"Lindsay\")\r",
							"\r",
							"\r",
							"\r",
							"var response = JSON.parse(responseBody);\r",
							"response.data[1].first_name==\"Lindsay\";"
						],
						"type": "text/javascript"
					}
				}
			],
			"request": {
				"method": "GET",
				"header": [],
				"url": {
					"raw": "{{url}}/users?page=2",
					"host": [
						"{{url}}"
					],
					"path": [
						"users"
					],
					"query": [
						{
							"key": "page",
							"value": "2"
						}
					]
				}
			},
			"response": []
		},
		{
			"name": "Get single Employee Data",
			"event": [
				{
					"listen": "test",
					"script": {
						"exec": [
							"tests[\"validating first name\"]= responseBody.has(\"Janet\");\r",
							"tests[\"validating status code\"] = responseCode.code==200;\r",
							""
						],
						"type": "text/javascript"
					}
				}
			],
			"request": {
				"method": "GET",
				"header": [],
				"url": {
					"raw": "{{url}}/users/2",
					"host": [
						"{{url}}"
					],
					"path": [
						"users",
						"2"
					]
				}
			},
			"response": []
		},
		{
			"name": "Create new record",
			"request": {
				"method": "POST",
				"header": [],
				"body": {
					"mode": "raw",
					"raw": "\t{\r\n    \"name\": \"morpheus\",\r\n    \"job\": \"leader\"\r\n}",
					"options": {
						"raw": {
							"language": "json"
						}
					}
				},
				"url": {
					"raw": "https://reqres.in/api/users",
					"protocol": "https",
					"host": [
						"reqres",
						"in"
					],
					"path": [
						"api",
						"users"
					]
				}
			},
			"response": []
		},
		{
			"name": "Update an Employee Record",
			"request": {
				"method": "PUT",
				"header": [],
				"body": {
					"mode": "raw",
					"raw": "{\r\n    \"name\": \"morpheus\",\r\n    \"job\": \"zion resident\"\r\n}",
					"options": {
						"raw": {
							"language": "json"
						}
					}
				},
				"url": {
					"raw": "https://reqres.in/api/users/2",
					"protocol": "https",
					"host": [
						"reqres",
						"in"
					],
					"path": [
						"api",
						"users",
						"2"
					]
				}
			},
			"response": []
		}
	],
	"variable": [
		{
			"key": "url",
			"value": "https://reqres.in/api"
		}
	]
}