{
	"info": {
		"_postman_id": "261600f2-700f-40bc-a81c-d7f3bb529d4c",
		"name": "HTTP Requests",
		"schema": "https://schema.getpostman.com/json/collection/v2.1.0/collection.json"
	},
	"item": [
		{
			"name": "New Request",
			"event": [
				{
					"listen": "test",
					"script": {
						"exec": [
							"\r",
							"//validating status code.\r",
							"pm.test(\"Status code is 200\", function () {\r",
							"    pm.response.to.have.status(200);\r",
							"});\r",
							"\r",
							"//validating Multiple fields\r",
							"pm.test(\"Validating multiple fields\",function(){\r",
							"    responseJson =  pm.response.json();\r",
							"    pm.expect(responseJson[0].id).to.eql(495);\r",
							"    pm.expect(responseJson[1].price).to.eql(\"10.29\");\r",
							"    pm.expect(responseJson[1].name).to.eql(\"Maybelline Fit Me Bronzer\")\r",
							"});\r",
							"//handling response that dont parse\r",
							"pm.test(\"body contains string\", function(){\r",
							"    pm.expect(pm.response.text()).to.include(\"Maybelline Fit Me Bronzer\")\r",
							"});\r",
							"\r",
							"pm.test(\"status code should be one of\", function(){\r",
							"    pm.expect(pm.response.code).to.be.oneOf([200,201])\r",
							"\r",
							"});\r",
							"\r",
							"//testing headers\r",
							"pm.test(\"Content-type header present\",function(){\r",
							"    pm.response.to.have.header(\"Content-Type\");\r",
							"\r",
							"});\r",
							"//testing header value\r",
							"pm.test(\"Content-type Header value\", function(){\r",
							"    pm.expect(pm.response.headers.get(\"Content-Type\")).to.eql(\"application/json; charset=utf-8\")\r",
							"});\r",
							"// respnse time\r",
							"\r",
							"pm.test(\"check respnsetime\", function(){\r",
							"    pm.expect(pm.response.responseTime).to.be.below(2000);\r",
							"});\r",
							"\r",
							"\r",
							"\r",
							""
						],
						"type": "text/javascript"
					}
				}
			],
			"request": {
				"method": "GET",
				"header": [],
				"url": {
					"raw": "http://makeup-api.herokuapp.com/api/v1/products.json?brand=maybelline",
					"protocol": "http",
					"host": [
						"makeup-api",
						"herokuapp",
						"com"
					],
					"path": [
						"api",
						"v1",
						"products.json"
					],
					"query": [
						{
							"key": "brand",
							"value": "maybelline"
						}
					]
				}
			},
			"response": []
		}
	]
}